{
  "domain": "https://yellow-pages-backend.iota-dev1.now.sh",
  "serviceRequester": "https://service-requester.iota-dev1.now.sh",
  "serviceProvider": "https://service-provider.iota-dev1.now.sh",
  "addressApi": "https://api.marketplace.tangle.works/location",
  "waitingTime": 30,
  "googleMaps": "https://www.google.com/maps/search/",
  "googleAnalyticsId": "",
  "eClassCatalog": "https://www.eclasscontent.com/index.php?action=cc2prdet&language=en&version=11.0&pridatt=",
  "mapboxStyles": "",
  "mapboxApiAccessToken": "pk.eyJ1IjoiZHluaXZzeXN0ZW1zIiwiYSI6ImNrOGVxZHB2YjAyODMzbm14Y3BodnBvcDkifQ.48Rly-ynotSKMxAQBg-pJw"
}
